<svg width="49" height="49" viewBox="0 0 49 49" fill="none" xmlns="http://www.w3.org/2000/svg">
<path d="M24.5 49C10.9902 49 0 38.0098 0 24.5C0 10.9902 10.9902 0 24.5 0C38.0098 0 49 10.9902 49 24.5C49 38.0098 38.0098 49 24.5 49ZM24.5 3.0625C12.6788 3.0625 3.0625 12.6788 3.0625 24.5C3.0625 36.3212 12.6788 45.9375 24.5 45.9375C36.3212 45.9375 45.9375 36.3212 45.9375 24.5C45.9375 12.6788 36.3212 3.0625 24.5 3.0625Z" fill="white"/>
<path d="M35.2188 37.7709C34.8266 37.7709 34.4348 37.6218 34.1365 37.3216L23.4177 26.6028C23.1299 26.315 22.9688 25.925 22.9688 25.5209V11.229C22.9688 10.3838 23.6547 9.69775 24.5 9.69775C25.3453 9.69775 26.0312 10.3838 26.0312 11.229V24.8858L36.301 35.1555C36.8992 35.7537 36.8992 36.7234 36.301 37.3216C36.0027 37.6218 35.6109 37.7709 35.2188 37.7709Z" fill="white"/>
</svg>
