<svg width="1920" height="850" viewBox="0 0 1920 850" fill="none" xmlns="http://www.w3.org/2000/svg">
<path d="M1920 0H0V812.5C0 812.5 354 850 960 850C1566 850 1920 812.5 1920 812.5V0Z" fill="#1F2D41"/>
</svg>
