<svg width="1920" height="956" viewBox="0 0 1920 956" fill="none" xmlns="http://www.w3.org/2000/svg">
<path d="M1920 0H0V918.5C0 918.5 354 956 960 956C1566 956 1920 918.5 1920 918.5V0Z" fill="#EFF3F9"/>
</svg>
